grafik_hemodialisis.vcd
$date
	Wed Dec 03 15:13:17 2025
$end
$version
	Icarus Verilog
$end
$timescale
	1ps
$end
$scope module tb_hemodialysis $end
$var wire 1 ! pump_on $end
$var wire 1 " peltier_heat $end
$var wire 1 # mfc_increase $end
$var wire 1 $ dosing_pump_correct $end
$var wire 1 % clamp_open $end
$var wire 1 & alarm_warning $end
$var wire 1 ' alarm_emergency $end
$var reg 1 ( air_detect $end
$var reg 1 ) clk $end
$var reg 1 * cond_warn $end
$var reg 1 + flow_warn $end
$var reg 1 , o2_warn $end
$var reg 1 - press_fail $end
$var reg 1 . reset $end
$var reg 1 / start_cmd $end
$var reg 1 0 stop_cmd $end
$var reg 1 1 temp_crit $end
$var reg 1 2 temp_warn $end
$scope module uut $end
$var wire 1 ( air_detect $end
$var wire 1 ) clk $end
$var wire 1 * cond_warn $end
$var wire 1 + flow_warn $end
$var wire 1 3 is_emergency $end
$var wire 1 , o2_warn $end
$var wire 1 - press_fail $end
$var wire 1 . reset $end
$var wire 1 / start_cmd $end
$var wire 1 0 stop_cmd $end
$var wire 1 1 temp_crit $end
$var wire 1 2 temp_warn $end
$var parameter 4 4 S_AIR_DETECT $end
$var parameter 4 5 S_COND_WARN $end
$var parameter 4 6 S_FLOW_WARN $end
$var parameter 4 7 S_IDLE $end
$var parameter 4 8 S_NORMAL $end
$var parameter 4 9 S_O2_WARN $end
$var parameter 4 : S_PRESS_FAIL $end
$var parameter 4 ; S_TEMP_CRIT $end
$var parameter 4 < S_TEMP_WARN $end
$var reg 1 ' alarm_emergency $end
$var reg 1 & alarm_warning $end
$var reg 1 % clamp_open $end
$var reg 4 = current_state [3:0] $end
$var reg 1 $ dosing_pump_correct $end
$var reg 1 # mfc_increase $end
$var reg 4 > next_state [3:0] $end
$var reg 1 " peltier_heat $end
$var reg 1 ! pump_on $end
$upscope $end
$upscope $end
$enddefinitions $end
$comment Show the parameter values. $end
$dumpall
b11 <
b1110 ;
b1111 :
b100 9
b1 8
b0 7
b10 6
b101 5
b1101 4
$end
#0
$dumpvars
b0 >
bx =
03
02
01
00
0/
1.
0-
0,
0+
0*
0)
0(
x'
x&
x%
x$
x#
x"
x!
$end
#5000
0'
0&
0$
0#
0"
0%
0!
b0 =
1)
#10000
0)
0.
#15000
1)
#20000
b1 >
0)
1/
#25000
1%
1!
b1 =
1)
#30000
0)
0/
#35000
1)
#40000
0)
#45000
1)
#50000
b11 >
0)
12
#55000
1&
1"
1%
1!
b11 =
1)
#60000
0)
#65000
1)
#70000
0)
#75000
1)
#80000
b1 >
0)
02
#85000
0&
0"
1%
1!
b1 =
1)
#90000
0)
#95000
1)
#100000
b1101 >
13
0)
1(
#105000
1'
0%
0!
b1101 =
1)
#110000
0)
#115000
1)
#120000
0)
#125000
1)
#130000
b0 >
03
0)
1.
0(
#135000
0'
b0 =
1)
#140000
0)
0.
